{
  "kind": "collectionType",
  "collectionName": "sliders",
  "info": {
    "name": "Slider"
  },
  "options": {
    "increments": true,
    "timestamps": true,
    "draftAndPublish": true
  },
  "pluginOptions": {},
  "attributes": {
    "title": {
      "type": "string",
      "required": true
    },
    "info": {
      "type": "text"
    },
    "image": {
      "model": "file",
      "via": "related",
      "allowedTypes": [
        "images"
      ],
      "plugin": "upload",
      "required": false,
      "pluginOptions": {}
    },
    "url": {
      "type": "string"
    },
    "order": {
      "type": "integer"
    }
  }
}
